

body {
  
    background-color: rgb(13, 150, 112);
}


.contact-form{

    margin-left: 350px!important;
}


.form-control{

  width:500px;
}






  .form-control {
    display: block;
    width:500px;

    
    font-size: 1rem;
    font-weight: 400;
    line-height: 1.5;
    color: #495057;
    background-color: #fff;
    background-clip: padding-box;
    border: 1px solid #ced4da;
    border-radius: 0.25rem;
    transition: border-color 0.15s ease-in-out, box-shadow 0.15s ease-in-out;
    margin-left: 10px;
}

h1:hover{

    color:#a5a5a5;}

    .btn{
        background-color: black;
        color:white;
    }

    .btn a{
        color: white;
    }
.btn:hover{

    background-color: #a5a5a5;
    color:white;
}

input:hover{

    border: 2px solid  #a5a5a5;
}

/*----------------------------------------------------------------------------------------------------*/


 
	 
<!DOCTYPE html>

<html lang="ar">

 <head>
 
    <meta name="viewport" content="width=device-width, initial-scale=1">
   <title>reg</title>
   
   
   <link href="css/bootstrap.css" rel="stylesheet" />
   
   
   <link rel="stylesheet" href="https://stackpath.bootstrapcdn.com/font-awesome/4.7.0/css/font-awesome.min.css">
   
   <link href="css/register.css" rel="stylesheet" />
   
   <!--<link rel="stylesheet" href="css/all.min.css"/>-->
   
   <style>
   
   body{

overflow-x:hidden;


}
   
   </style>
   
 </head>
 

 
     <body>
   
   


        
     
         
            <form action="" class="contact-form">
                <h2 class="h2 mt-5">REGISTER</h2>

      <div class="container">

          <div class="row">

              <div class="col-lg-7 col-md-5 col-sm-5">
                
                  <label for="">First Name</label>
                  <input type="text" class="form-control">
                
              </div>

              <div class="col-lg-7 col-sm-5">
                
                  <label for="">Last Name</label>
                  <input type="text" class="form-control">
               
              </div>

              <div class="col-lg-7 col-md-5 col-sm-5">
                
                  <label for="">Email</label>
                  <input type="text" class="form-control">
               
              </div>
              <div class="col-lg-7 col-md-5 col-sm-5">
               
                  <label for="">Message Subject</label>
                  <input type="text" class="form-control">
               
              </div>

              <div class="col-lg-7 col-md-5 col-sm-5">
               
                  <label for="">Drop your message here</label>
                  <textarea rows="3" type="text" class="form-control"></textarea>
                
              </div>

              <div class="col-lg-7 col-md-5 col-sm-5 mt-3">
                    <button type="button" class="btn btn-dark"><a id="a1" href="pharmacy.html" class="button-header signin-button">Send</a></button>

              </div>
        </div>
      </div>
            </form>
            
        

          